<svg width="65" height="63" viewBox="0 0 65 63" fill="none" xmlns="http://www.w3.org/2000/svg">
<path d="M13.9142 20.9967C8.23826 20.9967 3.62052 16.3785 3.62052 10.7022C3.62052 5.02586 8.23826 0.407715 13.9142 0.407715C19.5911 0.407715 24.2096 5.02586 24.2096 10.7022C24.2096 16.3785 19.5911 20.9967 13.9142 20.9967ZM13.9142 2.34874C9.30857 2.34874 5.56155 6.09617 5.56155 10.7022C5.56155 15.3082 9.30857 19.0556 13.9142 19.0556C18.5207 19.0556 22.2684 15.3082 22.2684 10.7022C22.2684 6.09617 18.5207 2.34874 13.9142 2.34874ZM54.235 48.7282C48.5589 48.7282 43.9412 44.1101 43.9412 38.4335C43.9412 32.7571 48.5589 28.139 54.235 28.139C59.9109 28.139 64.5287 32.7571 64.5287 38.4335C64.5287 44.1101 59.9109 48.7282 54.235 48.7282ZM54.235 30.08C49.6292 30.08 45.8822 33.8274 45.8822 38.4335C45.8822 43.0397 49.6294 46.7872 54.235 46.7872C58.8406 46.7872 62.5876 43.0396 62.5876 38.4335C62.5878 33.8274 58.8407 30.08 54.235 30.08ZM10.8895 62.7182C5.21345 62.7182 0.595703 58.1005 0.595703 52.4244C0.595703 46.7477 5.21345 42.1293 10.8895 42.1293C16.5664 42.1293 21.1849 46.7477 21.1849 52.4244C21.1848 58.1006 16.5664 62.7182 10.8895 62.7182ZM10.8895 44.0703C6.28376 44.0703 2.53687 47.818 2.53687 52.4244C2.53687 57.0302 6.28389 60.7772 10.8895 60.7772C15.4961 60.7772 19.2438 57.03 19.2438 52.4244C19.2438 47.818 15.4961 44.0703 10.8895 44.0703Z" fill="black"/>
<path d="M46.4092 34.3438C46.2281 34.3438 46.0449 34.2933 45.8817 34.1874L20.4063 17.6518C19.9567 17.3599 19.8288 16.7588 20.1206 16.3092C20.4124 15.8597 21.0134 15.7316 21.463 16.0235L46.9384 32.559C47.388 32.8509 47.5159 33.452 47.2241 33.9015C47.0383 34.1879 46.7268 34.3438 46.4092 34.3438ZM19.8298 50.7445C19.4106 50.7445 19.0241 50.4711 18.8993 50.0487C18.7476 49.5348 19.0412 48.9949 19.5552 48.8431L45.4042 41.2092C45.9188 41.0572 46.4582 41.3511 46.6098 41.865C46.7617 42.379 46.4681 42.9188 45.9541 43.0706L20.105 50.7045C20.0134 50.7316 19.9209 50.7445 19.8298 50.7445Z" fill="black"/>
</svg>
